…
## How many distinct stations are there?

``` r
nyc_sub |> 
  select(station_name, line) |> 
  distinct()
```

    ## # A tibble: 465 × 2
    ##    station_name             line    
    ##    <chr>                    <chr>   
    ##  1 25th St                  4 Avenue
    ##  2 36th St                  4 Avenue
    ##  3 45th St                  4 Avenue
    ##  4 53rd St                  4 Avenue
    ##  5 59th St                  4 Avenue
    ##  6 77th St                  4 Avenue
    ##  7 86th St                  4 Avenue
    ##  8 95th St                  4 Avenue
    ##  9 9th St                   4 Avenue
    ## 10 Atlantic Av-Barclays Ctr 4 Avenue
    ## # ℹ 455 more rows

– 465 distinct stations

## How many stations are ADA compliant?

``` r
nyc_sub |> 
  filter(ada == TRUE) |> 
  select(station_name, line) |> 
  distinct()
```

    ## # A tibble: 84 × 2
    ##    station_name                   line           
    ##    <chr>                          <chr>          
    ##  1 Atlantic Av-Barclays Ctr       4 Avenue       
    ##  2 DeKalb Av                      4 Avenue       
    ##  3 Pacific St                     4 Avenue       
    ##  4 Grand Central                  42nd St Shuttle
    ##  5 34th St                        6 Avenue       
    ##  6 47-50th Sts Rockefeller Center 6 Avenue       
    ##  7 Church Av                      6 Avenue       
    ##  8 21st St                        63rd Street    
    ##  9 Lexington Av                   63rd Street    
    ## 10 Roosevelt Island               63rd Street    
    ## # ℹ 74 more rows
…
– I standardized column names and split the baker name into first_name
and last_name, I made sure some columns are in correct format, and I
adjusted for two initial empty rows in results dataset.

### check for correctness

``` r
anti_join(bakers, bakes, 
                  by = c("first_name","series"))
```

    ## # A tibble: 26 × 6
    ##    first_name last_name       series baker_age baker_occupation         hometown
    ##    <chr>      <chr>            <int>     <int> <chr>                    <chr>   
    ##  1 Alice      Fevronia            10        28 Geography teacher        Essex   
    ##  2 Amelia     LeBruin             10        24 Fashion designer         Halifax 
    ##  3 Antony     Amourdoux            9        30 Banker                   London  
    ##  4 Briony     Williams             9        33 Full-time parent         Bristol 
    ##  5 Dan        Beasley-Harling      9        36 Full-time parent         London  
    ##  6 Dan        Chambers            10        32 Support worker           Rotherh…
    ##  7 David      Atherton            10        36 International health ad… Whitby  
    ##  8 Helena     Garcia              10        40 Online project manager   Leeds   
    ##  9 Henry      Bird                10        20 Student                  Durham  
    ## 10 Imelda     McCarron             9        33 Countryside recreation … County …
    ## # ℹ 16 more rows
…
- some bakers listed in the bakers dataset might not have participated
  in bakes dataset
- there are baking episodes for “Jo” that have not been accounted for in
  the results dataset. The correct name is Joanne in results dataset,
  they entered Jo in bakers dataset, and “Jo” with quotation mark in the
  bakes dataset.

``` r
mutate(bakes, first_name = ifelse(first_name == "\"Jo\"", "Jo", first_name), 
         first_name = ifelse(first_name == "Jo", "Joanne", first_name))
```

    ## # A tibble: 548 × 5
    ##    series episode first_name signature_bake                         show_stopper
    ##     <int>   <int> <chr>      <chr>                                  <chr>       
    ##  1      1       1 Annetha    "Light Jamaican Black Cakewith Strawb… Red, White …
    ##  2      1       1 David      "Chocolate Orange Cake"                Black Fores…
    ##  3      1       1 Edd        "Caramel Cinnamon and Banana Cake"     N/A         
    ##  4      1       1 Jasminder  "Fresh Mango and Passion Fruit Hummin… N/A         
    ##  5      1       1 Jonathan   "Carrot Cake with Lime and Cream Chee… Three Tiere…
    ##  6      1       1 Lea        "Cranberry and Pistachio Cakewith Ora… Raspberries…
    ##  7      1       1 Louise     "Carrot and Orange Cake"               Never Fail …
    ##  8      1       1 Mark       "Sticky Marmalade Tea Loaf"            Heart-shape…
    ##  9      1       1 Miranda    "Triple Layered Brownie Meringue Cake… Three Tiere…
    ## 10      1       1 Ruth       "Three Tiered Lemon Drizzle Cakewith … Classic Cho…
    ## # ℹ 538 more rows

``` r
mutate(bakers, first_name = ifelse(first_name == "Jo", "Joanne", first_name))
```

    ## # A tibble: 120 × 6
    ##    first_name last_name   series baker_age baker_occupation             hometown
    ##    <chr>      <chr>        <int>     <int> <chr>                        <chr>   
    ##  1 Ali        Imdad            4        25 Charity worker               Saltley…
    ##  2 Alice      Fevronia        10        28 Geography teacher            Essex   
    ##  3 Alvin      Magallanes       6        37 Nurse                        Brackne…
    ##  4 Amelia     LeBruin         10        24 Fashion designer             Halifax 
    ##  5 Andrew     Smyth            7        25 Aerospace engineer           Derby /…
    ##  6 Annetha    Mills            1        30 Midwife                      Essex   
    ##  7 Antony     Amourdoux        9        30 Banker                       London  
    ##  8 Beca       Lyne-Pirkis      4        31 Military Wives' Choir Singer Aldersh…
    ##  9 Ben        Frazer           2        31 Graphic Designer             Northam…
    ## 10 Benjamina  Ebuehi           7        23 Teaching assistant           South L…
    ## # ℹ 110 more rows
…
